<svg width="1792" height="1178" viewBox="0 0 1792 1178" fill="none" xmlns="http://www.w3.org/2000/svg">
<path opacity="0.1" d="M0 170H1792V1045C918 1317 0 1085 0 1085V170Z" fill="url(#paint0_linear_716_374)"/>
<path opacity="0.1" d="M1792 0H0V957C850 1233 1792 1021.5 1792 1021.5L1792 0Z" fill="url(#paint1_linear_716_374)"/>
<defs>
<linearGradient id="paint0_linear_716_374" x1="1548" y1="1241.32" x2="1558.5" y2="833.5" gradientUnits="userSpaceOnUse">
<stop stop-color="#78A22F"/>
<stop offset="1" stop-color="#78A22F" stop-opacity="0"/>
</linearGradient>
<linearGradient id="paint1_linear_716_374" x1="244" y1="903.071" x2="244" y2="0" gradientUnits="userSpaceOnUse">
<stop stop-color="#78A22F"/>
<stop offset="1" stop-color="#78A22F" stop-opacity="0"/>
</linearGradient>
</defs>
</svg>
