<svg width="824" height="1361" viewBox="0 0 824 1361" fill="none" xmlns="http://www.w3.org/2000/svg">
<path opacity="0.75" d="M576.984 652.52C505.993 655.877 435.253 641.894 370.878 611.781C306.503 581.668 250.43 536.33 207.506 479.687C164.582 423.043 136.099 356.799 124.518 286.679C112.937 216.559 118.606 144.673 141.037 77.2358L41.9543 44.097C11.1318 136.105 5.62 234.709 25.9962 329.58C46.3725 424.45 91.8869 512.095 157.771 583.332L-93.3937 860.063C-113.515 856.98 -134.094 860.459 -152.083 869.987C-170.072 879.515 -184.513 894.584 -193.267 912.961C-202.021 931.339 -204.622 952.048 -200.685 972.02C-196.749 991.992 -186.483 1010.16 -171.41 1023.84C-156.336 1037.53 -137.257 1045.99 -116.998 1047.98C-96.7394 1049.96 -76.3789 1045.37 -58.9332 1034.88C-41.4875 1024.4 -27.8845 1008.57 -20.1397 989.741C-12.3948 970.916 -10.92 950.096 -15.9338 930.367L235.784 653.028C313.947 710.203 405.991 745.411 502.359 754.996C598.726 764.581 695.903 748.194 783.797 707.535C788.485 705.372 793.136 703.116 797.743 700.819L751.109 607.314C696.841 634.323 637.537 649.72 576.984 652.52Z" fill="white"/>
</svg>
